Music over time
…
##   no                     title              artist year
## 1  1 Theme from A Summer Place         Percy Faith 1960
## 2  2          He'll Have to Go          Jim Reeves 1960
## 3  3             Cathy's Clown The Everly Brothers 1960
## 4  4              Running Bear      Johnny Preston 1960
## 5  5                Teen Angel        Mark Dinning 1960
## 6  6                 I'm Sorry          Brenda Lee 1960

billboard_raw <- as_tibble(wiki_hot_100s)
billboard_raw %>%
  mutate(rank = as.numeric(no),
         year = as.numeric(year))

## # A tibble: 5,701 x 5
##    no    title                     artist               year  rank
##    <chr> <chr>                     <chr>               <dbl> <dbl>
##  1 1     Theme from A Summer Place Percy Faith          1960     1
##  2 2     He'll Have to Go          Jim Reeves           1960     2
##  3 3     Cathy's Clown             The Everly Brothers  1960     3
##  4 4     Running Bear              Johnny Preston       1960     4
##  5 5     Teen Angel                Mark Dinning         1960     5
##  6 6     I'm Sorry                 Brenda Lee           1960     6
##  7 7     It's Now or Never         Elvis Presley        1960     7
##  8 8     Handy Man                 Jimmy Jones          1960     8
##  9 9     Stuck on You              Elvis Presley        1960     9
## 10 10    The Twist                 Chubby Checker       1960    10
## # ... with 5,691 more rows
…
